[api-updater (non-obsolete-error-filter)] 6-12-2021 09:03:15 : Starting C:/Program Files/Unity/Hub/Editor/2020.3.19f1/Editor/Data/Tools/ScriptUpdater/APIUpdater.NonObsoleteApiUpdaterDetector.exe
[api-updater (non-obsolete-error-filter)] 
----------------------------------
jit/startup time      : 218,4886ms
moved types parse time: 35ms
candidates parse time : 1ms
C# parse time         : 169ms
candidates check time : 20ms
console write time    : 0ms

[api-updater (non-obsolete-error-filter)] 6-12-2021 09:08:15 : Starting C:/Program Files/Unity/Hub/Editor/2020.3.19f1/Editor/Data/Tools/ScriptUpdater/APIUpdater.NonObsoleteApiUpdaterDetector.exe
[api-updater (non-obsolete-error-filter)] 
----------------------------------
jit/startup time      : 46,5007ms
moved types parse time: 37ms
candidates parse time : 0ms
C# parse time         : 125ms
candidates check time : 19ms
console write time    : 0ms

[api-updater (non-obsolete-error-filter)] 6-12-2021 09:15:55 : Starting C:/Program Files/Unity/Hub/Editor/2020.3.19f1/Editor/Data/Tools/ScriptUpdater/APIUpdater.NonObsoleteApiUpdaterDetector.exe
[api-updater (non-obsolete-error-filter)] 
----------------------------------
jit/startup time      : 48,4261ms
moved types parse time: 34ms
candidates parse time : 1ms
C# parse time         : 125ms
candidates check time : 21ms
console write time    : 0ms

